^C:\USERS\SRI\DOCUMENTS\VISUAL STUDIO 2015\PROJECTS\CONSOLEAPPLICATION3\CONSOLEAPPLICATION3\SOURCE.CPP
/c /IC:\OPENCV\BUILD\INCLUDE /ZI /nologo /W3 /WX- /sdl /Od /D _DEBUG /D _CONSOLE /D _UNICODE /D UNICODE /Gm /EHsc /RTC1 /MDd /GS /fp:precise /Zc:wchar_t /Zc:forScope /Zc:inline /Fo"X64\DEBUG\\" /Fd"X64\DEBUG\VC140.PDB" /Gd /TP C:\USERS\SRI\DOCUMENTS\VISUAL STUDIO 2015\PROJECTS\CONSOLEAPPLICATION3\CONSOLEAPPLICATION3\SOURCE.CPP
^C:\USERS\SRI\DOCUMENTS\VISUAL STUDIO 2015\PROJECTS\CONSOLEAPPLICATION3\CONSOLEAPPLICATION3\TRACKBAR WHILE.CPP
/c /IC:\OPENCV\BUILD\INCLUDE /ZI /nologo /W3 /WX- /sdl /Od /D _DEBUG /D _CONSOLE /D _UNICODE /D UNICODE /Gm /EHsc /RTC1 /MDd /GS /fp:precise /Zc:wchar_t /Zc:forScope /Zc:inline /Fo"X64\DEBUG\\" /Fd"X64\DEBUG\VC140.PDB" /Gd /TP C:\USERS\SRI\DOCUMENTS\VISUAL STUDIO 2015\PROJECTS\CONSOLEAPPLICATION3\CONSOLEAPPLICATION3\TRACKBAR WHILE.CPP
^C:\USERS\SRI\DOCUMENTS\VISUAL STUDIO 2015\PROJECTS\CONSOLEAPPLICATION3\CONSOLEAPPLICATION3\MEDIAN FILTER.CPP
/c /IC:\OPENCV\BUILD\INCLUDE /ZI /nologo /W3 /WX- /sdl /Od /D _DEBUG /D _CONSOLE /D _UNICODE /D UNICODE /Gm /EHsc /RTC1 /MDd /GS /fp:precise /Zc:wchar_t /Zc:forScope /Zc:inline /Fo"X64\DEBUG\\" /Fd"X64\DEBUG\VC140.PDB" /Gd /TP C:\USERS\SRI\DOCUMENTS\VISUAL STUDIO 2015\PROJECTS\CONSOLEAPPLICATION3\CONSOLEAPPLICATION3\MEDIAN FILTER.CPP
^C:\USERS\SRI\DOCUMENTS\VISUAL STUDIO 2015\PROJECTS\CONSOLEAPPLICATION3\CONSOLEAPPLICATION3\SOBEL FILTER.CPP
/c /IC:\OPENCV\BUILD\INCLUDE /ZI /nologo /W3 /WX- /sdl /Od /D _DEBUG /D _CONSOLE /D _UNICODE /D UNICODE /Gm /EHsc /RTC1 /MDd /GS /fp:precise /Zc:wchar_t /Zc:forScope /Zc:inline /Fo"X64\DEBUG\\" /Fd"X64\DEBUG\VC140.PDB" /Gd /TP C:\USERS\SRI\DOCUMENTS\VISUAL STUDIO 2015\PROJECTS\CONSOLEAPPLICATION3\CONSOLEAPPLICATION3\SOBEL FILTER.CPP
^C:\USERS\SRI\DOCUMENTS\VISUAL STUDIO 2015\PROJECTS\CONSOLEAPPLICATION3\CONSOLEAPPLICATION3\GAUSSIAN FILTER.CPP
/c /IC:\OPENCV\BUILD\INCLUDE /ZI /nologo /W3 /WX- /sdl /Od /D _DEBUG /D _CONSOLE /D _UNICODE /D UNICODE /Gm /EHsc /RTC1 /MDd /GS /fp:precise /Zc:wchar_t /Zc:forScope /Zc:inline /Fo"X64\DEBUG\\" /Fd"X64\DEBUG\VC140.PDB" /Gd /TP C:\USERS\SRI\DOCUMENTS\VISUAL STUDIO 2015\PROJECTS\CONSOLEAPPLICATION3\CONSOLEAPPLICATION3\GAUSSIAN FILTER.CPP
^C:\USERS\SRI\DOCUMENTS\VISUAL STUDIO 2015\PROJECTS\CONSOLEAPPLICATION3\CONSOLEAPPLICATION3\HISTOGRAM.CPP
/c /IC:\OPENCV\BUILD\INCLUDE /ZI /nologo /W3 /WX- /sdl /Od /D _DEBUG /D _CONSOLE /D _UNICODE /D UNICODE /Gm /EHsc /RTC1 /MDd /GS /fp:precise /Zc:wchar_t /Zc:forScope /Zc:inline /Fo"X64\DEBUG\\" /Fd"X64\DEBUG\VC140.PDB" /Gd /TP C:\USERS\SRI\DOCUMENTS\VISUAL STUDIO 2015\PROJECTS\CONSOLEAPPLICATION3\CONSOLEAPPLICATION3\HISTOGRAM.CPP
^C:\USERS\SRI\DOCUMENTS\VISUAL STUDIO 2015\PROJECTS\CONSOLEAPPLICATION3\CONSOLEAPPLICATION3\BLOB_DFS.CPP
/c /IC:\OPENCV\BUILD\INCLUDE /ZI /nologo /W3 /WX- /sdl /Od /D _DEBUG /D _CONSOLE /D _UNICODE /D UNICODE /Gm /EHsc /RTC1 /MDd /GS /fp:precise /Zc:wchar_t /Zc:forScope /Zc:inline /Fo"X64\DEBUG\\" /Fd"X64\DEBUG\VC140.PDB" /Gd /TP C:\USERS\SRI\DOCUMENTS\VISUAL STUDIO 2015\PROJECTS\CONSOLEAPPLICATION3\CONSOLEAPPLICATION3\BLOB_DFS.CPP
^C:\USERS\SRI\DOCUMENTS\VISUAL STUDIO 2015\PROJECTS\CONSOLEAPPLICATION3\CONSOLEAPPLICATION3\EROSION.CPP
/c /IC:\OPENCV\BUILD\INCLUDE /ZI /nologo /W3 /WX- /sdl /Od /D _DEBUG /D _CONSOLE /D _UNICODE /D UNICODE /Gm /EHsc /RTC1 /MDd /GS /fp:precise /Zc:wchar_t /Zc:forScope /Zc:inline /Fo"X64\DEBUG\\" /Fd"X64\DEBUG\VC140.PDB" /Gd /TP C:\USERS\SRI\DOCUMENTS\VISUAL STUDIO 2015\PROJECTS\CONSOLEAPPLICATION3\CONSOLEAPPLICATION3\EROSION.CPP
^C:\USERS\SRI\DOCUMENTS\VISUAL STUDIO 2015\PROJECTS\CONSOLEAPPLICATION3\CONSOLEAPPLICATION3\DILATION.CPP
/c /IC:\OPENCV\BUILD\INCLUDE /ZI /nologo /W3 /WX- /sdl /Od /D _DEBUG /D _CONSOLE /D _UNICODE /D UNICODE /Gm /EHsc /RTC1 /MDd /GS /fp:precise /Zc:wchar_t /Zc:forScope /Zc:inline /Fo"X64\DEBUG\\" /Fd"X64\DEBUG\VC140.PDB" /Gd /TP C:\USERS\SRI\DOCUMENTS\VISUAL STUDIO 2015\PROJECTS\CONSOLEAPPLICATION3\CONSOLEAPPLICATION3\DILATION.CPP
^C:\USERS\SRI\DOCUMENTS\VISUAL STUDIO 2015\PROJECTS\CONSOLEAPPLICATION3\CONSOLEAPPLICATION3\COLOR EXTRACTION.CPP
/c /IC:\OPENCV\BUILD\INCLUDE /ZI /nologo /W3 /WX- /sdl /Od /D _DEBUG /D _CONSOLE /D _UNICODE /D UNICODE /Gm /EHsc /RTC1 /MDd /GS /fp:precise /Zc:wchar_t /Zc:forScope /Zc:inline /Fo"X64\DEBUG\\" /Fd"X64\DEBUG\VC140.PDB" /Gd /TP C:\USERS\SRI\DOCUMENTS\VISUAL STUDIO 2015\PROJECTS\CONSOLEAPPLICATION3\CONSOLEAPPLICATION3\COLOR EXTRACTION.CPP
